This is BibTeX, Version 0.99d (TeX Live 2020)
Capacity: max_strings=200000, hash_size=200000, hash_prime=170003
The top-level auxiliary file: main.aux
The style file: ACM-Reference-Format.bst
Reallocated singl_function (elt_size=4) to 100 items from 50.
Reallocated singl_function (elt_size=4) to 100 items from 50.
Reallocated wiz_functions (elt_size=4) to 6000 items from 3000.
Database file #1: ref.bib
Reallocated singl_function (elt_size=4) to 100 items from 50.
Reallocated glb_str_ptr (elt_size=4) to 20 items from 10.
Reallocated global_strs (elt_size=200001) to 20 items from 10.
Reallocated glb_str_end (elt_size=4) to 20 items from 10.
Reallocated singl_function (elt_size=4) to 100 items from 50.
Warning--empty publisher in adib15:NSDI:multi
Warning--empty address in adib15:NSDI:multi
Warning--empty publisher in bowman17:ICRA:probabilistic
Warning--empty address in bowman17:ICRA:probabilistic
Warning--empty publisher in brugger2010fmcw
Warning--empty address in brugger2010fmcw
Warning--empty publisher in chauhan17:MSAS:breathprint
Warning--empty address in chauhan17:MSAS:breathprint
Warning--empty publisher in chen2017echotrack
Warning--empty address in chen2017echotrack
Warning--empty publisher in Chen20:InfoCom:TagRay
Warning--empty address in Chen20:InfoCom:TagRay
Warning--empty publisher in cheng20:INFOCOM:acouradar
Warning--empty address in cheng20:INFOCOM:acouradar
Warning--empty year in SpeedofSound
Warning--empty publisher in gjengset14:MobiCom:phaser
Warning--empty address in gjengset14:MobiCom:phaser
Warning--empty publisher in gu19:MNSS:mmsense
Warning--empty address in gu19:MNSS:mmsense
Warning--empty publisher in gupta12:HFCS:soundwave
Warning--empty address in gupta12:HFCS:soundwave
Warning--empty address in hahn1996hilbert
Warning--empty publisher in jin2006indoor
Warning--empty address in jin2006indoor
Warning--empty publisher in joshi:NSDI:2015wideo
Warning--empty address in joshi:NSDI:2015wideo
Warning--empty publisher in kotaru15:SIGCOMM:spotfi
Warning--empty address in kotaru15:SIGCOMM:spotfi
Warning--empty publisher in kotaru2015spotfi
Warning--empty address in kotaru2015spotfi
Warning--empty publisher in kuo2014luxapose
Warning--empty address in kuo2014luxapose
Warning--empty publisher in lin19:MobiCom:rebooting
Warning--empty address in lin19:MobiCom:rebooting
Warning--empty publisher in liu2017smartlight
Warning--empty address in liu2017smartlight
Warning--empty publisher in lu18:infocom:lippass
Warning--empty address in lu18:infocom:lippass
Warning--empty publisher in mao16:MobiCom:cat
Warning--empty address in mao16:MobiCom:cat
Warning--empty publisher in mao19:MobiCom:rnn
Warning--empty address in mao19:MobiCom:rnn
Warning--empty publisher in nandakumar2016fingerio
Warning--empty address in nandakumar2016fingerio
Warning--empty publisher in ni2003landmarc
Warning--empty address in ni2003landmarc
Warning--no number and no volume in oohashi2000inaudible
Warning--page numbers missing in both pages and numpages fields in oohashi2000inaudible
Warning--empty publisher in orr2000smart
Warning--empty address in orr2000smart
Warning--no number and no volume in pegoraro20::multi
Warning--page numbers missing in both pages and numpages fields in pegoraro20::multi
Warning--empty publisher in qian2018:mobisys:widar2
Warning--empty address in qian2018:mobisys:widar2
Warning--empty publisher in schroeder2010x
Warning--empty address in schroeder2010x
Warning--empty publisher in shen2020voice
Warning--empty address in shen2020voice
Warning--empty publisher in soltanaghaei18:MobiSys:multipath
Warning--empty address in soltanaghaei18:MobiSys:multipath
Warning--empty publisher in sorrentino2012accurate
Warning--empty address in sorrentino2012accurate
Warning--empty publisher in van2014camera
Warning--empty address in van2014camera
Warning--empty publisher in vasisht16:NSDI:decimeter
Warning--empty address in vasisht16:NSDI:decimeter
Warning--empty publisher in wang2013rf
Warning--empty address in wang2013rf
Warning--empty publisher in wang16:mobicom:lifs
Warning--empty address in wang16:mobicom:lifs
Warning--empty publisher in wang2013dude
Warning--empty address in wang2013dude
Warning--empty publisher in wang2016device
Warning--empty address in wang2016device
Warning--empty publisher in wang20:push
Warning--empty address in wang20:push
Warning--empty publisher in wei2017celli
Warning--empty address in wei2017celli
Warning--empty publisher in wixey2020feasibility
Warning--empty address in wixey2020feasibility
Warning--empty publisher in xiong2013arraytrack
Warning--empty address in xiong2013arraytrack
Warning--empty publisher in xiong15:MobiCom:tonetrack
Warning--empty address in xiong15:MobiCom:tonetrack
Warning--empty publisher in xu::xuedge
Warning--empty address in xu::xuedge
Warning--empty publisher in Yang20:InfoCom:RF-Ear
Warning--empty address in Yang20:InfoCom:RF-Ear
Warning--empty publisher in yun17:MobiSys:strata
Warning--empty address in yun17:MobiSys:strata
Warning--empty publisher in zhang2016litell
Warning--empty address in zhang2016litell
Warning--empty publisher in zhang17:CCS:hearing
Warning--empty address in zhang17:CCS:hearing
Warning--empty publisher in zhang2018vernier
Warning--empty address in zhang2018vernier
Warning--empty publisher in zhao19:DCOSS:mid
Warning--empty address in zhao19:DCOSS:mid
Warning--empty publisher in zhou17:ENS:battracker
Warning--empty address in zhou17:ENS:battracker
Warning--empty publisher in zhu2017enabling
Warning--empty address in zhu2017enabling
You've used 72 entries,
            5959 wiz_defined-function locations,
            1725 strings with 31228 characters,
and the built_in function-call counts, 93872 in all, are:
= -- 10839
> -- 3856
< -- 0
+ -- 1284
- -- 1256
* -- 6907
:= -- 9580
add.period$ -- 362
call.type$ -- 72
change.case$ -- 579
chr.to.int$ -- 70
cite$ -- 174
duplicate$ -- 8388
empty$ -- 5849
format.name$ -- 1518
if$ -- 22502
int.to.chr$ -- 4
int.to.str$ -- 1
missing$ -- 322
newline$ -- 576
num.names$ -- 574
pop$ -- 3502
preamble$ -- 1
purify$ -- 1217
quote$ -- 0
skip$ -- 3011
stack$ -- 0
substring$ -- 6826
swap$ -- 882
text.length$ -- 0
text.prefix$ -- 0
top$ -- 0
type$ -- 1853
warning$ -- 102
while$ -- 536
width$ -- 0
write$ -- 1229
(There were 102 warnings)
