%%% -*-BibTeX-*-
%%% Do NOT edit. File created by BibTeX with style
%%% ACM-Reference-Format-Journals [18-Jan-2012].

\begin{thebibliography}{72}

%%% ====================================================================
%%% NOTE TO THE USER: you can override these defaults by providing
%%% customized versions of any of these macros before the \bibliography
%%% command.  Each of them MUST provide its own final punctuation,
%%% except for \shownote{}, \showDOI{}, and \showURL{}.  The latter two
%%% do not use final punctuation, in order to avoid confusing it with
%%% the Web address.
%%%
%%% To suppress output of a particular field, define its macro to expand
%%% to an empty string, or better, \unskip, like this:
%%%
%%% \newcommand{\showDOI}[1]{\unskip}   % LaTeX syntax
%%%
%%% \def \showDOI #1{\unskip}           % plain TeX syntax
%%%
%%% ====================================================================

\ifx \showCODEN    \undefined \def \showCODEN     #1{\unskip}     \fi
\ifx \showDOI      \undefined \def \showDOI       #1{#1}\fi
\ifx \showISBNx    \undefined \def \showISBNx     #1{\unskip}     \fi
\ifx \showISBNxiii \undefined \def \showISBNxiii  #1{\unskip}     \fi
\ifx \showISSN     \undefined \def \showISSN      #1{\unskip}     \fi
\ifx \showLCCN     \undefined \def \showLCCN      #1{\unskip}     \fi
\ifx \shownote     \undefined \def \shownote      #1{#1}          \fi
\ifx \showarticletitle \undefined \def \showarticletitle #1{#1}   \fi
\ifx \showURL      \undefined \def \showURL       {\relax}        \fi
% The following commands are used for tagged output and should be
% invisible to TeX
\providecommand\bibfield[2]{#2}
\providecommand\bibinfo[2]{#2}
\providecommand\natexlab[1]{#1}
\providecommand\showeprint[2][]{arXiv:#2}

\bibitem[\protect\citeauthoryear{Adib, Kabelac, and Katabi}{Adib
  et~al\mbox{.}}{2015}]%
        {adib15:NSDI:multi}
\bibfield{author}{\bibinfo{person}{Fadel Adib}, \bibinfo{person}{Zachary
  Kabelac}, {and} \bibinfo{person}{Dina Katabi}.}
  \bibinfo{year}{2015}\natexlab{}.
\newblock \showarticletitle{Multi-person localization via {RF} body
  reflections}. In \bibinfo{booktitle}{\emph{Proceedings of the 12th USENIX
  Symposium on Networked Systems Design and Implementation (NSDI)}}.
  \bibinfo{pages}{279--292}.
\newblock


\bibitem[\protect\citeauthoryear{Bowman, Atanasov, Daniilidis, and
  Pappas}{Bowman et~al\mbox{.}}{2017}]%
        {bowman17:ICRA:probabilistic}
\bibfield{author}{\bibinfo{person}{Sean~L Bowman}, \bibinfo{person}{Nikolay
  Atanasov}, \bibinfo{person}{Kostas Daniilidis}, {and}
  \bibinfo{person}{George~J Pappas}.} \bibinfo{year}{2017}\natexlab{}.
\newblock \showarticletitle{Probabilistic data association for semantic slam}.
  In \bibinfo{booktitle}{\emph{Proceedings of the IEEE International Conference
  on Robotics and Automation (ICRA)}}. \bibinfo{pages}{1722--1729}.
\newblock


\bibitem[\protect\citeauthoryear{Brugger, Christ, Kemeth, Nagy, Schaefer, and
  Pietrzyk}{Brugger et~al\mbox{.}}{2010}]%
        {brugger2010fmcw}
\bibfield{author}{\bibinfo{person}{Matthias Brugger}, \bibinfo{person}{Tonia
  Christ}, \bibinfo{person}{Ferdinand Kemeth}, \bibinfo{person}{Sandor Nagy},
  \bibinfo{person}{Matthias Schaefer}, {and} \bibinfo{person}{Michal~M
  Pietrzyk}.} \bibinfo{year}{2010}\natexlab{}.
\newblock \showarticletitle{The FMCW technology-based indoor localization
  system}. In \bibinfo{booktitle}{\emph{2010 Ubiquitous Positioning Indoor
  Navigation and Location Based Service}}. IEEE, \bibinfo{pages}{1--6}.
\newblock


\bibitem[\protect\citeauthoryear{Chauhan, Hu, Seneviratne, Misra, Seneviratne,
  and Lee}{Chauhan et~al\mbox{.}}{2017}]%
        {chauhan17:MSAS:breathprint}
\bibfield{author}{\bibinfo{person}{Jagmohan Chauhan}, \bibinfo{person}{Yining
  Hu}, \bibinfo{person}{Suranga Seneviratne}, \bibinfo{person}{Archan Misra},
  \bibinfo{person}{Aruna Seneviratne}, {and} \bibinfo{person}{Youngki Lee}.}
  \bibinfo{year}{2017}\natexlab{}.
\newblock \showarticletitle{BreathPrint: Breathing acoustics-based user
  authentication}. In \bibinfo{booktitle}{\emph{Proceedings of the 15th ACM
  Annual International Conference on Mobile Systems, Applications, and
  Services}}. \bibinfo{pages}{278--291}.
\newblock


\bibitem[\protect\citeauthoryear{Chen, Li, and Wang}{Chen
  et~al\mbox{.}}{2017}]%
        {chen2017echotrack}
\bibfield{author}{\bibinfo{person}{Huijie Chen}, \bibinfo{person}{Fan Li},
  {and} \bibinfo{person}{Yu Wang}.} \bibinfo{year}{2017}\natexlab{}.
\newblock \showarticletitle{EchoTrack: Acoustic device-free hand tracking on
  smart phones}. In \bibinfo{booktitle}{\emph{IEEE INFOCOM 2017-IEEE Conference
  on Computer Communications}}. IEEE, \bibinfo{pages}{1--9}.
\newblock


\bibitem[\protect\citeauthoryear{Chen, Yang, Xiong, Feng, and Li}{Chen
  et~al\mbox{.}}{2020}]%
        {Chen20:InfoCom:TagRay}
\bibfield{author}{\bibinfo{person}{Ziyang Chen}, \bibinfo{person}{Panlong
  Yang}, \bibinfo{person}{Jie Xiong}, \bibinfo{person}{Yuanhao Feng}, {and}
  \bibinfo{person}{Xiang-Yang Li}.} \bibinfo{year}{2020}\natexlab{}.
\newblock \showarticletitle{TagRay: Contactless Sensing and Tracking of Mobile
  Objects using {COTS RFID} Devices}. In \bibinfo{booktitle}{\emph{Proceedings
  of the IEEE Conference on Computer Communications (INFOCOM)}}.
  \bibinfo{pages}{307--316}.
\newblock


\bibitem[\protect\citeauthoryear{Cheng, Wang, Zhang, Wang, Xu, and Wang}{Cheng
  et~al\mbox{.}}{2020}]%
        {cheng20:INFOCOM:acouradar}
\bibfield{author}{\bibinfo{person}{Linsong Cheng}, \bibinfo{person}{Zhao Wang},
  \bibinfo{person}{Yunting Zhang}, \bibinfo{person}{Weiyi Wang},
  \bibinfo{person}{Weimin Xu}, {and} \bibinfo{person}{Jiliang Wang}.}
  \bibinfo{year}{2020}\natexlab{}.
\newblock \showarticletitle{AcouRadar: Towards Single Source based Acoustic
  Localization}. In \bibinfo{booktitle}{\emph{Proceedings of the IEEE
  Conference on Computer Communications (INFOCOM)}}.
  \bibinfo{pages}{1848--1856}.
\newblock


\bibitem[\protect\citeauthoryear{Fletcher, Lloyd~Jones, White, Dolder,
  Leighton, and Lineton}{Fletcher et~al\mbox{.}}{2018}]%
        {fletcher2018effects}
\bibfield{author}{\bibinfo{person}{Mark~D Fletcher}, \bibinfo{person}{Sian
  Lloyd~Jones}, \bibinfo{person}{Paul~R White}, \bibinfo{person}{Craig~N
  Dolder}, \bibinfo{person}{Timothy~G Leighton}, {and}
  \bibinfo{person}{Benjamin Lineton}.} \bibinfo{year}{2018}\natexlab{}.
\newblock \showarticletitle{Effects of very high-frequency sound and ultrasound
  on humans. Part II: A double-blind randomized provocation study of inaudible
  20-kHz ultrasound}.
\newblock \bibinfo{journal}{\emph{The Journal of the Acoustical Society of
  America}} \bibinfo{volume}{144}, \bibinfo{number}{4} (\bibinfo{year}{2018}),
  \bibinfo{pages}{2521--2531}.
\newblock


\bibitem[\protect\citeauthoryear{for Nondestructive~Evaluation}{for
  Nondestructive~Evaluation}{[n.d.]}]%
        {SpeedofSound}
\bibfield{author}{\bibinfo{person}{Iowa State University~Center for
  Nondestructive~Evaluation}.} \bibinfo{year}{[n.d.]}\natexlab{}.
\newblock \bibinfo{title}{Temperature and the Speed of Sound}.
\newblock
\newblock
\urldef\tempurl%
\url{https://www.nde-ed.org/Physics/Sound/tempandspeed.xhtml}
\showURL{%
\tempurl}


\bibitem[\protect\citeauthoryear{Fourati}{Fourati}{2014}]%
        {fourati2014heterogeneous}
\bibfield{author}{\bibinfo{person}{Hassen Fourati}.}
  \bibinfo{year}{2014}\natexlab{}.
\newblock \showarticletitle{Heterogeneous data fusion algorithm for pedestrian
  navigation via foot-mounted inertial measurement unit and complementary
  filter}.
\newblock \bibinfo{journal}{\emph{IEEE Transactions on Instrumentation and
  Measurement}} \bibinfo{volume}{64}, \bibinfo{number}{1}
  (\bibinfo{year}{2014}), \bibinfo{pages}{221--229}.
\newblock


\bibitem[\protect\citeauthoryear{Gao, Tian, Ye, Luo, Bian, Wang, Wang, and
  Li}{Gao et~al\mbox{.}}{2015}]%
        {gao2015sextant}
\bibfield{author}{\bibinfo{person}{Ruipeng Gao}, \bibinfo{person}{Yang Tian},
  \bibinfo{person}{Fan Ye}, \bibinfo{person}{Guojie Luo},
  \bibinfo{person}{Kaigui Bian}, \bibinfo{person}{Yizhou Wang},
  \bibinfo{person}{Tao Wang}, {and} \bibinfo{person}{Xiaoming Li}.}
  \bibinfo{year}{2015}\natexlab{}.
\newblock \showarticletitle{Sextant: Towards ubiquitous indoor localization
  service by photo-taking of the environment}.
\newblock \bibinfo{journal}{\emph{IEEE Transactions on Mobile Computing}}
  \bibinfo{volume}{15}, \bibinfo{number}{2} (\bibinfo{year}{2015}),
  \bibinfo{pages}{460--474}.
\newblock


\bibitem[\protect\citeauthoryear{Gjengset, Xiong, McPhillips, and
  Jamieson}{Gjengset et~al\mbox{.}}{2014}]%
        {gjengset14:MobiCom:phaser}
\bibfield{author}{\bibinfo{person}{Jon Gjengset}, \bibinfo{person}{Jie Xiong},
  \bibinfo{person}{Graeme McPhillips}, {and} \bibinfo{person}{Kyle Jamieson}.}
  \bibinfo{year}{2014}\natexlab{}.
\newblock \showarticletitle{Phaser: Enabling phased array signal processing on
  commodity {WiFi} access points}. In \bibinfo{booktitle}{\emph{Proceedings of
  the 20th ACM Annual International Conference on Mobile Computing and
  Networking (MobiCom)}}. \bibinfo{pages}{153--164}.
\newblock


\bibitem[\protect\citeauthoryear{Graham, Simmons, Nguyen, and Zhou}{Graham
  et~al\mbox{.}}{2015}]%
        {graham2015software}
\bibfield{author}{\bibinfo{person}{Daniel Graham}, \bibinfo{person}{George
  Simmons}, \bibinfo{person}{David~T Nguyen}, {and} \bibinfo{person}{Gang
  Zhou}.} \bibinfo{year}{2015}\natexlab{}.
\newblock \showarticletitle{A software-based sonar ranging sensor for smart
  phones}.
\newblock \bibinfo{journal}{\emph{IEEE Internet of Things Journal}}
  \bibinfo{volume}{2}, \bibinfo{number}{6} (\bibinfo{year}{2015}),
  \bibinfo{pages}{479--489}.
\newblock


\bibitem[\protect\citeauthoryear{Gu, Fang, Yang, Hu, and Mohapatra}{Gu
  et~al\mbox{.}}{2019}]%
        {gu19:MNSS:mmsense}
\bibfield{author}{\bibinfo{person}{Tianbo Gu}, \bibinfo{person}{Zheng Fang},
  \bibinfo{person}{Zhicheng Yang}, \bibinfo{person}{Pengfei Hu}, {and}
  \bibinfo{person}{Prasant Mohapatra}.} \bibinfo{year}{2019}\natexlab{}.
\newblock \showarticletitle{mmSense: Multi-Person Detection and Identification
  via mmWave Sensing}. In \bibinfo{booktitle}{\emph{Proceedings of the 3rd ACM
  Workshop on Millimeter-wave Networks and Sensing Systems}}.
  \bibinfo{pages}{45--50}.
\newblock


\bibitem[\protect\citeauthoryear{Gupta, Morris, Patel, and Tan}{Gupta
  et~al\mbox{.}}{2012}]%
        {gupta12:HFCS:soundwave}
\bibfield{author}{\bibinfo{person}{Sidhant Gupta}, \bibinfo{person}{Daniel
  Morris}, \bibinfo{person}{Shwetak Patel}, {and} \bibinfo{person}{Desney
  Tan}.} \bibinfo{year}{2012}\natexlab{}.
\newblock \showarticletitle{Soundwave: using the doppler effect to sense
  gestures}. In \bibinfo{booktitle}{\emph{Proceedings of the ACM SIGCHI
  Conference on Human Factors in Computing Systems}}.
  \bibinfo{pages}{1911--1914}.
\newblock


\bibitem[\protect\citeauthoryear{Hahn}{Hahn}{1996}]%
        {hahn1996hilbert}
\bibfield{author}{\bibinfo{person}{Stefan~L Hahn}.}
  \bibinfo{year}{1996}\natexlab{}.
\newblock \bibinfo{booktitle}{\emph{Hilbert transforms in signal processing}}.
  Vol.~\bibinfo{volume}{2}.
\newblock \bibinfo{publisher}{Artech House Boston}.
\newblock


\bibitem[\protect\citeauthoryear{Hu, Xiong, Huang, Li, Yang, Zhang, and Mao}{Hu
  et~al\mbox{.}}{2018}]%
        {hu2018lightitude}
\bibfield{author}{\bibinfo{person}{Yiqing Hu}, \bibinfo{person}{Yan Xiong},
  \bibinfo{person}{Wenchao Huang}, \bibinfo{person}{Xiang-Yang Li},
  \bibinfo{person}{Panlong Yang}, \bibinfo{person}{Yanan Zhang}, {and}
  \bibinfo{person}{Xufei Mao}.} \bibinfo{year}{2018}\natexlab{}.
\newblock \showarticletitle{Lightitude: Indoor positioning using uneven light
  intensity distribution}.
\newblock \bibinfo{journal}{\emph{Proceedings of the ACM on Interactive,
  Mobile, Wearable and Ubiquitous Technologies}} \bibinfo{volume}{2},
  \bibinfo{number}{2} (\bibinfo{year}{2018}), \bibinfo{pages}{1--25}.
\newblock


\bibitem[\protect\citeauthoryear{IndustryArc}{IndustryArc}{2017}]%
        {predict_indoor}
\bibfield{author}{\bibinfo{person}{IndustryArc}.}
  \bibinfo{year}{2017}\natexlab{}.
\newblock \bibinfo{title}{Indoor Positioning and Navigation Market -
  Forecast(2020 - 2025)}.
\newblock
\newblock
\urldef\tempurl%
\url{https://www.industryarc.com/Report/43/global-indoor-positioning-navigation-market.html}
\showURL{%
\tempurl}


\bibitem[\protect\citeauthoryear{Jin, Lu, and Park}{Jin et~al\mbox{.}}{2006}]%
        {jin2006indoor}
\bibfield{author}{\bibinfo{person}{Guang-yao Jin}, \bibinfo{person}{Xiao-yi
  Lu}, {and} \bibinfo{person}{Myong-Soon Park}.}
  \bibinfo{year}{2006}\natexlab{}.
\newblock \showarticletitle{An indoor localization mechanism using active RFID
  tag}. In \bibinfo{booktitle}{\emph{IEEE International Conference on Sensor
  Networks, Ubiquitous, and Trustworthy Computing (SUTC'06)}},
  Vol.~\bibinfo{volume}{1}. IEEE, \bibinfo{pages}{4--pp}.
\newblock


\bibitem[\protect\citeauthoryear{Joshi, Bharadia, Kotaru, and Katti}{Joshi
  et~al\mbox{.}}{2015}]%
        {joshi:NSDI:2015wideo}
\bibfield{author}{\bibinfo{person}{Kiran Joshi}, \bibinfo{person}{Dinesh
  Bharadia}, \bibinfo{person}{Manikanta Kotaru}, {and} \bibinfo{person}{Sachin
  Katti}.} \bibinfo{year}{2015}\natexlab{}.
\newblock \showarticletitle{WiDeo: Fine-grained Device-free Motion Tracing
  using {RF} Backscatter}. In \bibinfo{booktitle}{\emph{Proceedings of the 12th
  USENIX Symposium on Networked Systems Design and Implementation (NSDI)}}.
  \bibinfo{pages}{189--204}.
\newblock


\bibitem[\protect\citeauthoryear{Kotaru, Joshi, Bharadia, and Katti}{Kotaru
  et~al\mbox{.}}{2015a}]%
        {kotaru15:SIGCOMM:spotfi}
\bibfield{author}{\bibinfo{person}{Manikanta Kotaru}, \bibinfo{person}{Kiran
  Joshi}, \bibinfo{person}{Dinesh Bharadia}, {and} \bibinfo{person}{Sachin
  Katti}.} \bibinfo{year}{2015}\natexlab{a}.
\newblock \showarticletitle{Spotfi: Decimeter level localization using {WiFi}}.
  In \bibinfo{booktitle}{\emph{Proceedings of the ACM Conference on Special
  Interest Group on Data Communication}}. \bibinfo{pages}{269--282}.
\newblock


\bibitem[\protect\citeauthoryear{Kotaru, Joshi, Bharadia, and Katti}{Kotaru
  et~al\mbox{.}}{2015b}]%
        {kotaru2015spotfi}
\bibfield{author}{\bibinfo{person}{Manikanta Kotaru}, \bibinfo{person}{Kiran
  Joshi}, \bibinfo{person}{Dinesh Bharadia}, {and} \bibinfo{person}{Sachin
  Katti}.} \bibinfo{year}{2015}\natexlab{b}.
\newblock \showarticletitle{Spotfi: Decimeter level localization using wifi}.
  In \bibinfo{booktitle}{\emph{Proceedings of the 2015 ACM Conference on
  Special Interest Group on Data Communication}}. \bibinfo{pages}{269--282}.
\newblock


\bibitem[\protect\citeauthoryear{Kuo, Pannuto, Hsiao, and Dutta}{Kuo
  et~al\mbox{.}}{2014}]%
        {kuo2014luxapose}
\bibfield{author}{\bibinfo{person}{Ye-Sheng Kuo}, \bibinfo{person}{Pat
  Pannuto}, \bibinfo{person}{Ko-Jen Hsiao}, {and} \bibinfo{person}{Prabal
  Dutta}.} \bibinfo{year}{2014}\natexlab{}.
\newblock \showarticletitle{Luxapose: Indoor positioning with mobile phones and
  visible light}. In \bibinfo{booktitle}{\emph{Proceedings of the 20th annual
  international conference on Mobile computing and networking}}.
  \bibinfo{pages}{447--458}.
\newblock


\bibitem[\protect\citeauthoryear{Lakoba, Kaup, and Finkelstein}{Lakoba
  et~al\mbox{.}}{2005}]%
        {lakoba2005modifications}
\bibfield{author}{\bibinfo{person}{Taras~I Lakoba}, \bibinfo{person}{David~J
  Kaup}, {and} \bibinfo{person}{Neal~M Finkelstein}.}
  \bibinfo{year}{2005}\natexlab{}.
\newblock \showarticletitle{Modifications of the Helbing-Molnar-Farkas-Vicsek
  social force model for pedestrian evolution}.
\newblock \bibinfo{journal}{\emph{Simulation}} \bibinfo{volume}{81},
  \bibinfo{number}{5} (\bibinfo{year}{2005}), \bibinfo{pages}{339--352}.
\newblock


\bibitem[\protect\citeauthoryear{Langlois, Tiku, and Pasricha}{Langlois
  et~al\mbox{.}}{2017}]%
        {langlois2017indoor}
\bibfield{author}{\bibinfo{person}{Christopher Langlois},
  \bibinfo{person}{Saideep Tiku}, {and} \bibinfo{person}{Sudeep Pasricha}.}
  \bibinfo{year}{2017}\natexlab{}.
\newblock \showarticletitle{Indoor localization with smartphones: Harnessing
  the sensor suite in your pocket}.
\newblock \bibinfo{journal}{\emph{IEEE Consumer Electronics Magazine}}
  \bibinfo{volume}{6}, \bibinfo{number}{4} (\bibinfo{year}{2017}),
  \bibinfo{pages}{70--80}.
\newblock


\bibitem[\protect\citeauthoryear{Leighton}{Leighton}{2016}]%
        {leighton2016some}
\bibfield{author}{\bibinfo{person}{TG Leighton}.}
  \bibinfo{year}{2016}\natexlab{}.
\newblock \showarticletitle{Are some people suffering as a result of increasing
  mass exposure of the public to ultrasound in air?}
\newblock \bibinfo{journal}{\emph{Proceedings of the Royal Society A:
  Mathematical, Physical and Engineering Sciences}} \bibinfo{volume}{472},
  \bibinfo{number}{2185} (\bibinfo{year}{2016}), \bibinfo{pages}{20150624}.
\newblock


\bibitem[\protect\citeauthoryear{Lin, An, and Yang}{Lin et~al\mbox{.}}{2019}]%
        {lin19:MobiCom:rebooting}
\bibfield{author}{\bibinfo{person}{Qiongzheng Lin}, \bibinfo{person}{Zhenlin
  An}, {and} \bibinfo{person}{Lei Yang}.} \bibinfo{year}{2019}\natexlab{}.
\newblock \showarticletitle{Rebooting ultrasonic positioning systems for
  ultrasound-incapable smart devices}. In \bibinfo{booktitle}{\emph{Proceedings
  of the 25th ACM Annual International Conference on Mobile Computing and
  Networking (MobiCom)}}. \bibinfo{pages}{1--16}.
\newblock


\bibitem[\protect\citeauthoryear{Liu, Liu, and Li}{Liu et~al\mbox{.}}{2015}]%
        {liu2015guoguo}
\bibfield{author}{\bibinfo{person}{Kaikai Liu}, \bibinfo{person}{Xinxin Liu},
  {and} \bibinfo{person}{Xiaolin Li}.} \bibinfo{year}{2015}\natexlab{}.
\newblock \showarticletitle{Guoguo: Enabling fine-grained smartphone
  localization via acoustic anchors}.
\newblock \bibinfo{journal}{\emph{IEEE transactions on mobile computing}}
  \bibinfo{volume}{15}, \bibinfo{number}{5} (\bibinfo{year}{2015}),
  \bibinfo{pages}{1144--1156}.
\newblock


\bibitem[\protect\citeauthoryear{Liu and He}{Liu and He}{2017}]%
        {liu2017smartlight}
\bibfield{author}{\bibinfo{person}{Song Liu} {and} \bibinfo{person}{Tian He}.}
  \bibinfo{year}{2017}\natexlab{}.
\newblock \showarticletitle{Smartlight: Light-weight 3d indoor localization
  using a single led lamp}. In \bibinfo{booktitle}{\emph{Proceedings of the
  15th ACM Conference on Embedded Network Sensor Systems}}.
  \bibinfo{pages}{1--14}.
\newblock


\bibitem[\protect\citeauthoryear{Lu, Yu, Chen, Liu, Zhu, Liu, and Li}{Lu
  et~al\mbox{.}}{2018}]%
        {lu18:infocom:lippass}
\bibfield{author}{\bibinfo{person}{Li Lu}, \bibinfo{person}{Jiadi Yu},
  \bibinfo{person}{Yingying Chen}, \bibinfo{person}{Hongbo Liu},
  \bibinfo{person}{Yanmin Zhu}, \bibinfo{person}{Yunfei Liu}, {and}
  \bibinfo{person}{Minglu Li}.} \bibinfo{year}{2018}\natexlab{}.
\newblock \showarticletitle{{LipPass}: Lip reading-based user authentication on
  smartphones leveraging acoustic signals}. In
  \bibinfo{booktitle}{\emph{Proceedings of the IEEE Conference on Computer
  Communications (INFOCOM)}}. \bibinfo{pages}{1466--1474}.
\newblock


\bibitem[\protect\citeauthoryear{Mao, He, and Qiu}{Mao et~al\mbox{.}}{2016}]%
        {mao16:MobiCom:cat}
\bibfield{author}{\bibinfo{person}{Wenguang Mao}, \bibinfo{person}{Jian He},
  {and} \bibinfo{person}{Lili Qiu}.} \bibinfo{year}{2016}\natexlab{}.
\newblock \showarticletitle{CAT: high-precision acoustic motion tracking}. In
  \bibinfo{booktitle}{\emph{Proceedings of the 22nd Annual International
  Conference on Mobile Computing and Networking}}. \bibinfo{pages}{69--81}.
\newblock


\bibitem[\protect\citeauthoryear{Mao, Wang, Sun, Qiu, Pradhan, and Chen}{Mao
  et~al\mbox{.}}{2019}]%
        {mao19:MobiCom:rnn}
\bibfield{author}{\bibinfo{person}{Wenguang Mao}, \bibinfo{person}{Mei Wang},
  \bibinfo{person}{Wei Sun}, \bibinfo{person}{Lili Qiu},
  \bibinfo{person}{Swadhin Pradhan}, {and} \bibinfo{person}{Yi-Chao Chen}.}
  \bibinfo{year}{2019}\natexlab{}.
\newblock \showarticletitle{RNN-Based Room Scale Hand Motion Tracking}. In
  \bibinfo{booktitle}{\emph{Proceedings of the 25th ACM Annual International
  Conference on Mobile Computing and Networking (MobiCom)}}.
  \bibinfo{pages}{1--16}.
\newblock


\bibitem[\protect\citeauthoryear{Matz, Stieb, Davis, Egyed, Rose, Chou, and
  Brion}{Matz et~al\mbox{.}}{2014}]%
        {matz2014effects}
\bibfield{author}{\bibinfo{person}{Carlyn~J Matz}, \bibinfo{person}{David~M
  Stieb}, \bibinfo{person}{Karelyn Davis}, \bibinfo{person}{Marika Egyed},
  \bibinfo{person}{Andreas Rose}, \bibinfo{person}{Benedito Chou}, {and}
  \bibinfo{person}{Orly Brion}.} \bibinfo{year}{2014}\natexlab{}.
\newblock \showarticletitle{Effects of age, season, gender and urban-rural
  status on time-activity: Canadian Human Activity Pattern Survey 2 (CHAPS 2)}.
\newblock \bibinfo{journal}{\emph{International journal of environmental
  research and public health}} \bibinfo{volume}{11}, \bibinfo{number}{2}
  (\bibinfo{year}{2014}), \bibinfo{pages}{2108--2124}.
\newblock


\bibitem[\protect\citeauthoryear{Mirshekari, Pan, Fagert, Schooler, Zhang, and
  Noh}{Mirshekari et~al\mbox{.}}{2018}]%
        {mirshekari2018occupant}
\bibfield{author}{\bibinfo{person}{Mostafa Mirshekari}, \bibinfo{person}{Shijia
  Pan}, \bibinfo{person}{Jonathon Fagert}, \bibinfo{person}{Eve~M Schooler},
  \bibinfo{person}{Pei Zhang}, {and} \bibinfo{person}{Hae~Young Noh}.}
  \bibinfo{year}{2018}\natexlab{}.
\newblock \showarticletitle{Occupant localization using footstep-induced
  structural vibration}.
\newblock \bibinfo{journal}{\emph{Mechanical Systems and Signal Processing}}
  \bibinfo{volume}{112} (\bibinfo{year}{2018}), \bibinfo{pages}{77--97}.
\newblock


\bibitem[\protect\citeauthoryear{Nandakumar, Iyer, Tan, and
  Gollakota}{Nandakumar et~al\mbox{.}}{2016}]%
        {nandakumar2016fingerio}
\bibfield{author}{\bibinfo{person}{Rajalakshmi Nandakumar},
  \bibinfo{person}{Vikram Iyer}, \bibinfo{person}{Desney Tan}, {and}
  \bibinfo{person}{Shyamnath Gollakota}.} \bibinfo{year}{2016}\natexlab{}.
\newblock \showarticletitle{Fingerio: Using active sonar for fine-grained
  finger tracking}. In \bibinfo{booktitle}{\emph{Proceedings of the 2016 CHI
  Conference on Human Factors in Computing Systems}}.
  \bibinfo{pages}{1515--1525}.
\newblock


\bibitem[\protect\citeauthoryear{Nandakumar, Takakuwa, Kohno, and
  Gollakota}{Nandakumar et~al\mbox{.}}{2017}]%
        {nandakumar17:IMWUT:covertband}
\bibfield{author}{\bibinfo{person}{Rajalakshmi Nandakumar},
  \bibinfo{person}{Alex Takakuwa}, \bibinfo{person}{Tadayoshi Kohno}, {and}
  \bibinfo{person}{Shyamnath Gollakota}.} \bibinfo{year}{2017}\natexlab{}.
\newblock \showarticletitle{Covertband: Activity information leakage using
  music}.
\newblock \bibinfo{journal}{\emph{ACM on Interactive, Mobile, Wearable and
  Ubiquitous Technologies}} \bibinfo{volume}{1}, \bibinfo{number}{3}
  (\bibinfo{year}{2017}), \bibinfo{pages}{87}.
\newblock


\bibitem[\protect\citeauthoryear{Ni, Liu, Lau, and Patil}{Ni
  et~al\mbox{.}}{2003}]%
        {ni2003landmarc}
\bibfield{author}{\bibinfo{person}{Lionel~M Ni}, \bibinfo{person}{Yunhao Liu},
  \bibinfo{person}{Yiu~Cho Lau}, {and} \bibinfo{person}{Abhishek~P Patil}.}
  \bibinfo{year}{2003}\natexlab{}.
\newblock \showarticletitle{LANDMARC: indoor location sensing using active
  RFID}. In \bibinfo{booktitle}{\emph{Proceedings of the First IEEE
  International Conference on Pervasive Computing and Communications,
  2003.(PerCom 2003).}} IEEE, \bibinfo{pages}{407--415}.
\newblock


\bibitem[\protect\citeauthoryear{Oohashi, Nishina, Honda, Yonekura, Fuwamoto,
  Kawai, Maekawa, Nakamura, Fukuyama, and Shibasaki}{Oohashi
  et~al\mbox{.}}{2000}]%
        {oohashi2000inaudible}
\bibfield{author}{\bibinfo{person}{Tsutomu Oohashi}, \bibinfo{person}{Emi
  Nishina}, \bibinfo{person}{Manabu Honda}, \bibinfo{person}{Yoshiharu
  Yonekura}, \bibinfo{person}{Yoshitaka Fuwamoto}, \bibinfo{person}{Norie
  Kawai}, \bibinfo{person}{Tadao Maekawa}, \bibinfo{person}{Satoshi Nakamura},
  \bibinfo{person}{Hidenao Fukuyama}, {and} \bibinfo{person}{Hiroshi
  Shibasaki}.} \bibinfo{year}{2000}\natexlab{}.
\newblock \showarticletitle{Inaudible high-frequency sounds affect brain
  activity: hypersonic effect}.
\newblock \bibinfo{journal}{\emph{Journal of neurophysiology}}
  (\bibinfo{year}{2000}).
\newblock


\bibitem[\protect\citeauthoryear{Orr and Abowd}{Orr and Abowd}{2000}]%
        {orr2000smart}
\bibfield{author}{\bibinfo{person}{Robert~J Orr} {and}
  \bibinfo{person}{Gregory~D Abowd}.} \bibinfo{year}{2000}\natexlab{}.
\newblock \showarticletitle{The smart floor: A mechanism for natural user
  identification and tracking}. In \bibinfo{booktitle}{\emph{Proceedings of the
  CHI Extended Abstracts on Human Factors in Computing Systems}}.
  \bibinfo{pages}{275--276}.
\newblock


\bibitem[\protect\citeauthoryear{Pegoraro, Meneghello, and Rossi}{Pegoraro
  et~al\mbox{.}}{2020}]%
        {pegoraro20::multi}
\bibfield{author}{\bibinfo{person}{Jacopo Pegoraro}, \bibinfo{person}{Francesca
  Meneghello}, {and} \bibinfo{person}{Michele Rossi}.}
  \bibinfo{year}{2020}\natexlab{}.
\newblock \showarticletitle{Multi-Person Continuous Tracking and Identification
  from mm-Wave micro-Doppler Signatures}.
\newblock \bibinfo{journal}{\emph{arXiv preprint arXiv:2003.03571}}
  (\bibinfo{year}{2020}).
\newblock


\bibitem[\protect\citeauthoryear{Peng, Shen, and Zhang}{Peng
  et~al\mbox{.}}{2012}]%
        {peng2012beepbeep}
\bibfield{author}{\bibinfo{person}{Chunyi Peng}, \bibinfo{person}{Guobin Shen},
  {and} \bibinfo{person}{Yongguang Zhang}.} \bibinfo{year}{2012}\natexlab{}.
\newblock \showarticletitle{BeepBeep: A high-accuracy acoustic-based system for
  ranging and localization using COTS devices}.
\newblock \bibinfo{journal}{\emph{ACM Transactions on Embedded Computing
  Systems (TECS)}} \bibinfo{volume}{11}, \bibinfo{number}{1}
  (\bibinfo{year}{2012}), \bibinfo{pages}{1--29}.
\newblock


\bibitem[\protect\citeauthoryear{Qian, Wu, Zhang, Zhang, Yang, and Liu}{Qian
  et~al\mbox{.}}{2018}]%
        {qian2018:mobisys:widar2}
\bibfield{author}{\bibinfo{person}{Kun Qian}, \bibinfo{person}{Chenshu Wu},
  \bibinfo{person}{Yi Zhang}, \bibinfo{person}{Guidong Zhang},
  \bibinfo{person}{Zheng Yang}, {and} \bibinfo{person}{Yunhao Liu}.}
  \bibinfo{year}{2018}\natexlab{}.
\newblock \showarticletitle{Widar2. 0: Passive human tracking with a single
  {Wi-Fi} link}. In \bibinfo{booktitle}{\emph{Proceedings of the 16th Annual
  International Conference on Mobile Systems, Applications, and Services}}.
  \bibinfo{pages}{350--361}.
\newblock


\bibitem[\protect\citeauthoryear{Schroeder and Rohling}{Schroeder and
  Rohling}{2010}]%
        {schroeder2010x}
\bibfield{author}{\bibinfo{person}{Christoph Schroeder} {and}
  \bibinfo{person}{Hermann Rohling}.} \bibinfo{year}{2010}\natexlab{}.
\newblock \showarticletitle{X-band FMCW radar system with variable chirp
  duration}. In \bibinfo{booktitle}{\emph{2010 IEEE Radar Conference}}. IEEE,
  \bibinfo{pages}{1255--1259}.
\newblock


\bibitem[\protect\citeauthoryear{Shannon}{Shannon}{1949}]%
        {shannon1949communication}
\bibfield{author}{\bibinfo{person}{Claude~Elwood Shannon}.}
  \bibinfo{year}{1949}\natexlab{}.
\newblock \showarticletitle{Communication in the presence of noise}.
\newblock \bibinfo{journal}{\emph{Proceedings of the IRE}}
  \bibinfo{volume}{37}, \bibinfo{number}{1} (\bibinfo{year}{1949}),
  \bibinfo{pages}{10--21}.
\newblock


\bibitem[\protect\citeauthoryear{Shen, Chen, Wei, Yang, and Choudhury}{Shen
  et~al\mbox{.}}{2020}]%
        {shen2020voice}
\bibfield{author}{\bibinfo{person}{Sheng Shen}, \bibinfo{person}{Daguan Chen},
  \bibinfo{person}{Yu-Lin Wei}, \bibinfo{person}{Zhijian Yang}, {and}
  \bibinfo{person}{Romit~Roy Choudhury}.} \bibinfo{year}{2020}\natexlab{}.
\newblock \showarticletitle{Voice localization using nearby wall reflections}.
  In \bibinfo{booktitle}{\emph{Proceedings of the 26th Annual International
  Conference on Mobile Computing and Networking}}. \bibinfo{pages}{1--14}.
\newblock


\bibitem[\protect\citeauthoryear{Soltanaghaei, Kalyanaraman, and
  Whitehouse}{Soltanaghaei et~al\mbox{.}}{2018}]%
        {soltanaghaei18:MobiSys:multipath}
\bibfield{author}{\bibinfo{person}{Elahe Soltanaghaei},
  \bibinfo{person}{Avinash Kalyanaraman}, {and} \bibinfo{person}{Kamin
  Whitehouse}.} \bibinfo{year}{2018}\natexlab{}.
\newblock \showarticletitle{Multipath triangulation: Decimeter-level wifi
  localization and orientation with a single unaided receiver}. In
  \bibinfo{booktitle}{\emph{Proceedings of the 16th Annual International
  Conference on Mobile Systems, Applications, and Services}}.
  \bibinfo{pages}{376--388}.
\newblock


\bibitem[\protect\citeauthoryear{Sorrentino, Sbarra, Urbani, Montori, Gatti,
  and Marcaccioli}{Sorrentino et~al\mbox{.}}{2012}]%
        {sorrentino2012accurate}
\bibfield{author}{\bibinfo{person}{Roberto Sorrentino}, \bibinfo{person}{Elisa
  Sbarra}, \bibinfo{person}{Laura Urbani}, \bibinfo{person}{Simone Montori},
  \bibinfo{person}{Roberto~Vincenti Gatti}, {and} \bibinfo{person}{Luca
  Marcaccioli}.} \bibinfo{year}{2012}\natexlab{}.
\newblock \showarticletitle{Accurate FMCW radar-based indoor localization
  system}. In \bibinfo{booktitle}{\emph{2012 IEEE International Conference on
  RFID-Technologies and Applications (RFID-TA)}}. IEEE,
  \bibinfo{pages}{362--368}.
\newblock


\bibitem[\protect\citeauthoryear{Taketomi, Uchiyama, and Ikeda}{Taketomi
  et~al\mbox{.}}{2017}]%
        {taketomi2017visual}
\bibfield{author}{\bibinfo{person}{Takafumi Taketomi}, \bibinfo{person}{Hideaki
  Uchiyama}, {and} \bibinfo{person}{Sei Ikeda}.}
  \bibinfo{year}{2017}\natexlab{}.
\newblock \showarticletitle{Visual SLAM algorithms: a survey from 2010 to
  2016}.
\newblock \bibinfo{journal}{\emph{IPSJ Transactions on Computer Vision and
  Applications}} \bibinfo{volume}{9}, \bibinfo{number}{1}
  (\bibinfo{year}{2017}), \bibinfo{pages}{1--11}.
\newblock


\bibitem[\protect\citeauthoryear{Van~Opdenbosch, Schroth, Huitl, Hilsenbeck,
  Garcea, and Steinbach}{Van~Opdenbosch et~al\mbox{.}}{2014}]%
        {van2014camera}
\bibfield{author}{\bibinfo{person}{Dominik Van~Opdenbosch},
  \bibinfo{person}{Georg Schroth}, \bibinfo{person}{Robert Huitl},
  \bibinfo{person}{Sebastian Hilsenbeck}, \bibinfo{person}{Adrian Garcea},
  {and} \bibinfo{person}{Eckehard Steinbach}.} \bibinfo{year}{2014}\natexlab{}.
\newblock \showarticletitle{Camera-based indoor positioning using scalable
  streaming of compressed binary image signatures}. In
  \bibinfo{booktitle}{\emph{2014 IEEE International Conference on Image
  Processing (ICIP)}}. IEEE, \bibinfo{pages}{2804--2808}.
\newblock


\bibitem[\protect\citeauthoryear{Vasisht, Jain, Hsu, Kabelac, and
  Katabi}{Vasisht et~al\mbox{.}}{2018}]%
        {vasisht18:IMWUT:duet}
\bibfield{author}{\bibinfo{person}{Deepak Vasisht}, \bibinfo{person}{Anubhav
  Jain}, \bibinfo{person}{Chen-Yu Hsu}, \bibinfo{person}{Zachary Kabelac},
  {and} \bibinfo{person}{Dina Katabi}.} \bibinfo{year}{2018}\natexlab{}.
\newblock \showarticletitle{Duet: Estimating user position and identity in
  smart homes using intermittent and incomplete RF-data}.
\newblock \bibinfo{journal}{\emph{Proceedings of the ACM on Interactive,
  Mobile, Wearable and Ubiquitous Technologies}} \bibinfo{volume}{2},
  \bibinfo{number}{2} (\bibinfo{year}{2018}), \bibinfo{pages}{1--21}.
\newblock


\bibitem[\protect\citeauthoryear{Vasisht, Kumar, and Katabi}{Vasisht
  et~al\mbox{.}}{2016}]%
        {vasisht16:NSDI:decimeter}
\bibfield{author}{\bibinfo{person}{Deepak Vasisht}, \bibinfo{person}{Swarun
  Kumar}, {and} \bibinfo{person}{Dina Katabi}.}
  \bibinfo{year}{2016}\natexlab{}.
\newblock \showarticletitle{Decimeter-level localization with a single {WiFi}
  access point}. In \bibinfo{booktitle}{\emph{Proceedings of the 13th USENIX
  Symposium on Networked Systems Design and Implementation (NSDI)}}.
  \bibinfo{pages}{165--178}.
\newblock


\bibitem[\protect\citeauthoryear{Wang, Adib, Knepper, Katabi, and Rus}{Wang
  et~al\mbox{.}}{2013}]%
        {wang2013rf}
\bibfield{author}{\bibinfo{person}{Jue Wang}, \bibinfo{person}{Fadel Adib},
  \bibinfo{person}{Ross Knepper}, \bibinfo{person}{Dina Katabi}, {and}
  \bibinfo{person}{Daniela Rus}.} \bibinfo{year}{2013}\natexlab{}.
\newblock \showarticletitle{RF-compass: Robot object manipulation using RFIDs}.
  In \bibinfo{booktitle}{\emph{Proceedings of the 19th annual international
  conference on Mobile computing \& networking}}. \bibinfo{pages}{3--14}.
\newblock


\bibitem[\protect\citeauthoryear{Wang, Jiang, Xiong, Jamieson, Chen, Fang, and
  Xie}{Wang et~al\mbox{.}}{2016a}]%
        {wang16:mobicom:lifs}
\bibfield{author}{\bibinfo{person}{Ju Wang}, \bibinfo{person}{Hongbo Jiang},
  \bibinfo{person}{Jie Xiong}, \bibinfo{person}{Kyle Jamieson},
  \bibinfo{person}{Xiaojiang Chen}, \bibinfo{person}{Dingyi Fang}, {and}
  \bibinfo{person}{Binbin Xie}.} \bibinfo{year}{2016}\natexlab{a}.
\newblock \showarticletitle{{LIFS}: low human-effort, device-free localization
  with fine-grained subcarrier information}. In
  \bibinfo{booktitle}{\emph{Proceedings of the 22nd ACM Annual International
  Conference on Mobile Computing and Networking (MobiCom)}}.
  \bibinfo{pages}{243--256}.
\newblock


\bibitem[\protect\citeauthoryear{Wang and Katabi}{Wang and Katabi}{2013}]%
        {wang2013dude}
\bibfield{author}{\bibinfo{person}{Jue Wang} {and} \bibinfo{person}{Dina
  Katabi}.} \bibinfo{year}{2013}\natexlab{}.
\newblock \showarticletitle{Dude, where's my card? RFID positioning that works
  with multipath and non-line of sight}. In
  \bibinfo{booktitle}{\emph{Proceedings of the ACM SIGCOMM 2013 conference on
  SIGCOMM}}. \bibinfo{pages}{51--62}.
\newblock


\bibitem[\protect\citeauthoryear{Wang, Liu, and Sun}{Wang
  et~al\mbox{.}}{2016b}]%
        {wang2016device}
\bibfield{author}{\bibinfo{person}{Wei Wang}, \bibinfo{person}{Alex~X Liu},
  {and} \bibinfo{person}{Ke Sun}.} \bibinfo{year}{2016}\natexlab{b}.
\newblock \showarticletitle{Device-free gesture tracking using acoustic
  signals}. In \bibinfo{booktitle}{\emph{Proceedings of the 22nd Annual
  International Conference on Mobile Computing and Networking}}.
  \bibinfo{pages}{82--94}.
\newblock


\bibitem[\protect\citeauthoryear{Wang, Shen, and Zheng}{Wang
  et~al\mbox{.}}{2020}]%
        {wang20:push}
\bibfield{author}{\bibinfo{person}{Yanwen Wang}, \bibinfo{person}{Jiaxing
  Shen}, {and} \bibinfo{person}{Yuanqing Zheng}.}
  \bibinfo{year}{2020}\natexlab{}.
\newblock \showarticletitle{Push the Limit of Acoustic Gesture Recognition}. In
  \bibinfo{booktitle}{\emph{Proceedings of the IEEE Conference on Computer
  Communications (INFOCOM)}}. \bibinfo{pages}{566--575}.
\newblock


\bibitem[\protect\citeauthoryear{Wei, Huang, Tsai, and Lin}{Wei
  et~al\mbox{.}}{2017}]%
        {wei2017celli}
\bibfield{author}{\bibinfo{person}{Yu-Lin Wei}, \bibinfo{person}{Chang-Jung
  Huang}, \bibinfo{person}{Hsin-Mu Tsai}, {and} \bibinfo{person}{Kate Ching-Ju
  Lin}.} \bibinfo{year}{2017}\natexlab{}.
\newblock \showarticletitle{Celli: Indoor positioning using polarized sweeping
  light beams}. In \bibinfo{booktitle}{\emph{Proceedings of the 15th Annual
  International Conference on Mobile Systems, Applications, and Services}}.
  \bibinfo{pages}{136--147}.
\newblock


\bibitem[\protect\citeauthoryear{Welch, Bishop, et~al\mbox{.}}{Welch
  et~al\mbox{.}}{1995}]%
        {welch1995introduction}
\bibfield{author}{\bibinfo{person}{Greg Welch}, \bibinfo{person}{Gary Bishop},
  {et~al\mbox{.}}} \bibinfo{year}{1995}\natexlab{}.
\newblock \bibinfo{title}{An introduction to the Kalman filter}.
\newblock
\newblock


\bibitem[\protect\citeauthoryear{Wixey, De~Cristofaro, and Johnson}{Wixey
  et~al\mbox{.}}{2020}]%
        {wixey2020feasibility}
\bibfield{author}{\bibinfo{person}{Matt Wixey}, \bibinfo{person}{Emiliano
  De~Cristofaro}, {and} \bibinfo{person}{Shane~D Johnson}.}
  \bibinfo{year}{2020}\natexlab{}.
\newblock \showarticletitle{On the Feasibility of Acoustic Attacks Using
  Commodity Smart Devices}. In \bibinfo{booktitle}{\emph{2020 IEEE Security and
  Privacy Workshops (SPW)}}. IEEE, \bibinfo{pages}{88--97}.
\newblock


\bibitem[\protect\citeauthoryear{Xie, Chen, Tan, Lu, Liu, Wu, and He}{Xie
  et~al\mbox{.}}{2016}]%
        {xie2016lips}
\bibfield{author}{\bibinfo{person}{Bo Xie}, \bibinfo{person}{Kongyang Chen},
  \bibinfo{person}{Guang Tan}, \bibinfo{person}{Mingming Lu},
  \bibinfo{person}{Yunhuai Liu}, \bibinfo{person}{Jie Wu}, {and}
  \bibinfo{person}{Tian He}.} \bibinfo{year}{2016}\natexlab{}.
\newblock \showarticletitle{LIPS: A light intensity--based positioning system
  for indoor environments}.
\newblock \bibinfo{journal}{\emph{ACM Transactions on Sensor Networks (TOSN)}}
  \bibinfo{volume}{12}, \bibinfo{number}{4} (\bibinfo{year}{2016}),
  \bibinfo{pages}{1--27}.
\newblock


\bibitem[\protect\citeauthoryear{Xiong and Jamieson}{Xiong and
  Jamieson}{2013}]%
        {xiong2013arraytrack}
\bibfield{author}{\bibinfo{person}{Jie Xiong} {and} \bibinfo{person}{Kyle
  Jamieson}.} \bibinfo{year}{2013}\natexlab{}.
\newblock \showarticletitle{Arraytrack: A fine-grained indoor location system}.
  In \bibinfo{booktitle}{\emph{Presented as part of the 10th $\{$USENIX$\}$
  Symposium on Networked Systems Design and Implementation ($\{$NSDI$\}$ 13)}}.
  \bibinfo{pages}{71--84}.
\newblock


\bibitem[\protect\citeauthoryear{Xiong, Sundaresan, and Jamieson}{Xiong
  et~al\mbox{.}}{2015}]%
        {xiong15:MobiCom:tonetrack}
\bibfield{author}{\bibinfo{person}{Jie Xiong}, \bibinfo{person}{Karthikeyan
  Sundaresan}, {and} \bibinfo{person}{Kyle Jamieson}.}
  \bibinfo{year}{2015}\natexlab{}.
\newblock \showarticletitle{Tonetrack: Leveraging frequency-agile radios for
  time-based indoor wireless localization}. In
  \bibinfo{booktitle}{\emph{Proceedings of the 21st ACM Annual International
  Conference on Mobile Computing and Networking (MobiCom)}}.
  \bibinfo{pages}{537--549}.
\newblock


\bibitem[\protect\citeauthoryear{Xu, Cao, Li, Huang, Qian, Shangguan, and
  Yang}{Xu et~al\mbox{.}}{2020}]%
        {xu::xuedge}
\bibfield{author}{\bibinfo{person}{Jingao Xu}, \bibinfo{person}{Hao Cao},
  \bibinfo{person}{Danyang Li}, \bibinfo{person}{Kehong Huang},
  \bibinfo{person}{Chen Qian}, \bibinfo{person}{Longfei Shangguan}, {and}
  \bibinfo{person}{Zheng Yang}.} \bibinfo{year}{2020}\natexlab{}.
\newblock \showarticletitle{Edge Assisted Mobile Semantic Visual {SLAM}}. In
  \bibinfo{booktitle}{\emph{Proceedings of the IEEE Conference on Computer
  Communications (INFOCOM)}}. \bibinfo{pages}{1828--1837}.
\newblock


\bibitem[\protect\citeauthoryear{Yang, Feng, Xiong, Chen, and Li}{Yang
  et~al\mbox{.}}{2020}]%
        {Yang20:InfoCom:RF-Ear}
\bibfield{author}{\bibinfo{person}{Panlong Yang}, \bibinfo{person}{Yuanhao
  Feng}, \bibinfo{person}{Jie Xiong}, \bibinfo{person}{Ziyang Chen}, {and}
  \bibinfo{person}{Xiang-Yang Li}.} \bibinfo{year}{2020}\natexlab{}.
\newblock \showarticletitle{{RF-Ear}: Contactless Multi-device Vibration
  Sensing and Identification Using {COTS RFID}}. In
  \bibinfo{booktitle}{\emph{Proceedings of the IEEE Conference on Computer
  Communications (INFOCOM)}}. \bibinfo{pages}{297--306}.
\newblock


\bibitem[\protect\citeauthoryear{Yuan and Chen}{Yuan and Chen}{2014}]%
        {yuan2014localization}
\bibfield{author}{\bibinfo{person}{Qilong Yuan} {and} \bibinfo{person}{I-Ming
  Chen}.} \bibinfo{year}{2014}\natexlab{}.
\newblock \showarticletitle{Localization and velocity tracking of human via 3
  IMU sensors}.
\newblock \bibinfo{journal}{\emph{Sensors and Actuators A: Physical}}
  \bibinfo{volume}{212} (\bibinfo{year}{2014}), \bibinfo{pages}{25--33}.
\newblock


\bibitem[\protect\citeauthoryear{Yun, Chen, Zheng, Qiu, and Mao}{Yun
  et~al\mbox{.}}{2017}]%
        {yun17:MobiSys:strata}
\bibfield{author}{\bibinfo{person}{Sangki Yun}, \bibinfo{person}{Yi-Chao Chen},
  \bibinfo{person}{Huihuang Zheng}, \bibinfo{person}{Lili Qiu}, {and}
  \bibinfo{person}{Wenguang Mao}.} \bibinfo{year}{2017}\natexlab{}.
\newblock \showarticletitle{Strata: Fine-grained acoustic-based device-free
  tracking}. In \bibinfo{booktitle}{\emph{Proceedings of the 15th annual
  international conference on mobile systems, applications, and services}}.
  \bibinfo{pages}{15--28}.
\newblock


\bibitem[\protect\citeauthoryear{Zhang and Zhang}{Zhang and Zhang}{2016}]%
        {zhang2016litell}
\bibfield{author}{\bibinfo{person}{Chi Zhang} {and} \bibinfo{person}{Xinyu
  Zhang}.} \bibinfo{year}{2016}\natexlab{}.
\newblock \showarticletitle{LiTell: Robust indoor localization using unmodified
  light fixtures}. In \bibinfo{booktitle}{\emph{Proceedings of the 22nd Annual
  International Conference on Mobile Computing and Networking}}.
  \bibinfo{pages}{230--242}.
\newblock


\bibitem[\protect\citeauthoryear{Zhang, Tan, and Yang}{Zhang
  et~al\mbox{.}}{2017}]%
        {zhang17:CCS:hearing}
\bibfield{author}{\bibinfo{person}{Linghan Zhang}, \bibinfo{person}{Sheng Tan},
  {and} \bibinfo{person}{Jie Yang}.} \bibinfo{year}{2017}\natexlab{}.
\newblock \showarticletitle{Hearing your voice is not enough: An articulatory
  gesture based liveness detection for voice authentication}. In
  \bibinfo{booktitle}{\emph{Proceedings of the ACM SIGSAC Conference on
  Computer and Communications Security (CCS)}}. \bibinfo{pages}{57--71}.
\newblock


\bibitem[\protect\citeauthoryear{Zhang, Wang, Wang, Wang, and Liu}{Zhang
  et~al\mbox{.}}{2018}]%
        {zhang2018vernier}
\bibfield{author}{\bibinfo{person}{Yunting Zhang}, \bibinfo{person}{Jiliang
  Wang}, \bibinfo{person}{Weiyi Wang}, \bibinfo{person}{Zhao Wang}, {and}
  \bibinfo{person}{Yunhao Liu}.} \bibinfo{year}{2018}\natexlab{}.
\newblock \showarticletitle{Vernier: Accurate and fast acoustic motion tracking
  using mobile devices}. In \bibinfo{booktitle}{\emph{IEEE INFOCOM 2018-IEEE
  Conference on Computer Communications}}. IEEE, \bibinfo{pages}{1709--1717}.
\newblock


\bibitem[\protect\citeauthoryear{Zhao, Lu, Wang, Chen, Wang, Trigoni, and
  Markham}{Zhao et~al\mbox{.}}{2019}]%
        {zhao19:DCOSS:mid}
\bibfield{author}{\bibinfo{person}{Peijun Zhao},
  \bibinfo{person}{Chris~Xiaoxuan Lu}, \bibinfo{person}{Jianan Wang},
  \bibinfo{person}{Changhao Chen}, \bibinfo{person}{Wei Wang},
  \bibinfo{person}{Niki Trigoni}, {and} \bibinfo{person}{Andrew Markham}.}
  \bibinfo{year}{2019}\natexlab{}.
\newblock \showarticletitle{mid: Tracking and identifying people with
  millimeter wave radar}. In \bibinfo{booktitle}{\emph{15th International
  Conference on Distributed Computing in Sensor Systems (DCOSS)}}.
  \bibinfo{pages}{33--40}.
\newblock


\bibitem[\protect\citeauthoryear{Zhou, Elbadry, Gao, and Ye}{Zhou
  et~al\mbox{.}}{2017}]%
        {zhou17:ENS:battracker}
\bibfield{author}{\bibinfo{person}{Bing Zhou}, \bibinfo{person}{Mohammed
  Elbadry}, \bibinfo{person}{Ruipeng Gao}, {and} \bibinfo{person}{Fan Ye}.}
  \bibinfo{year}{2017}\natexlab{}.
\newblock \showarticletitle{BatTracker: High precision infrastructure-free
  mobile device tracking in indoor environments}. In
  \bibinfo{booktitle}{\emph{Proceedings of the 15th ACM Conference on Embedded
  Network Sensor Systems}}. \bibinfo{pages}{1--14}.
\newblock


\bibitem[\protect\citeauthoryear{Zhu and Zhang}{Zhu and Zhang}{2017}]%
        {zhu2017enabling}
\bibfield{author}{\bibinfo{person}{Shilin Zhu} {and} \bibinfo{person}{Xinyu
  Zhang}.} \bibinfo{year}{2017}\natexlab{}.
\newblock \showarticletitle{Enabling high-precision visible light localization
  in today's buildings}. In \bibinfo{booktitle}{\emph{Proceedings of the 15th
  Annual International Conference on Mobile Systems, Applications, and
  Services}}. \bibinfo{pages}{96--108}.
\newblock


\end{thebibliography}
